#
# A fatal error has been detected by the Java Runtime Environment:
#
#  SIGSEGV (0xb) at pc=0x0000000108ad5e8c, pid=36025, tid=0x000000000000a2f3
#
# JRE version: OpenJDK Runtime Environment (8.0_112-b06) (build 1.8.0_112-release-b06)
# Java VM: OpenJDK 64-Bit Server VM (25.112-b06 mixed mode bsd-amd64 compressed oops)
# Problematic frame:
# j  sun.reflect.annotation.AnnotationParser.toArray(Ljava/util/Map;)[Ljava/lang/annotation/Annotation;+9
#
# Failed to write core dump. Core dumps have been disabled. To enable core dumping, try "ulimit -c unlimited" before starting Java again
#
# If you would like to submit a bug report, please visit:
#   http://bugreport.java.com/bugreport/crash.jsp
#

---------------  T H R E A D  ---------------

Current thread (0x00007ff859e30800):  JavaThread "Daemon worker Thread 49" [_thread_in_Java, id=41715, stack(0x000070000b681000,0x000070000b781000)]

siginfo: si_signo: 11 (SIGSEGV), si_code: 1 (SEGV_MAPERR), si_addr: 0x0000000880435be8

Registers:
RAX=0x00000007c0014d88, RBX=0x0000000000000006, RCX=0x000000076109f058, RDX=0x00000007c00d4f30
RSP=0x000070000b77cb50, RBP=0x000070000b77cba8, RSI=0x0000000000000000, RDI=0x000070000b77cad0
R8 =0x0000000000000003, R9 =0x0000000000000428, R10=0x000000010488d010, R11=0x0000000000000000
R12=0x0000000000000000, R13=0x0000000880435be8, R14=0x00000007c00f4f00, R15=0x00007ff859e30800
RIP=0x0000000108ad5e8c, EFLAGS=0x0000000000010202, ERR=0x0000000000000004
  TRAPNO=0x000000000000000e

Top of Stack: (sp=0x000070000b77cb50)
0x000070000b77cb50:   0000000108ab9e54 0000000760131be8
0x000070000b77cb60:   000000076109f058 000070000b77cb68
0x000070000b77cb70:   000000011b6d3871 000070000b77cbb8
0x000070000b77cb80:   000000011b6d4828 000000011d8a3a68
0x000070000b77cb90:   000000011b6d3888 0000000000000000
0x000070000b77cba0:   000070000b77cbb8 000070000b77cc00
0x000070000b77cbb0:   0000000108ab9d80 0000000000000000
0x000070000b77cbc0:   000070000b77cbc0 0000000117af7d7c
0x000070000b77cbd0:   000070000b77cc10 0000000117b6eab0
0x000070000b77cbe0:   000000011d8a38c0 0000000117af7d88
0x000070000b77cbf0:   000070000b77cbb8 000070000b77cc10
0x000070000b77cc00:   000070000b77cc58 0000000108ab9d80
0x000070000b77cc10:   0000000000000000 000070000b77cc18
0x000070000b77cc20:   0000000117af4f71 000070000b77cc68
0x000070000b77cc30:   0000000117b6f408 000000011d9225b0
0x000070000b77cc40:   0000000117af4f80 000070000b77cc10
0x000070000b77cc50:   000070000b77cc68 000070000b77ccb0
0x000070000b77cc60:   0000000108ab9d80 0000000000000000
0x000070000b77cc70:   000070000b77cc70 000000011e46199e
0x000070000b77cc80:   000070000b77cd28 000000011e461b38
0x000070000b77cc90:   000000011d645768 000000011e461aa8
0x000070000b77cca0:   000070000b77cc68 000070000b77cd30
0x000070000b77ccb0:   000000076109dc98 000000010ac702b0
0x000070000b77ccc0:   0000000000000000 00000007b3ac9a38
0x000070000b77ccd0:   0000000000000000 0000000000000000
0x000070000b77cce0:   0000000000000000 0000000000000000
0x000070000b77ccf0:   0000000000000000 deaddeaf00000004
0x000070000b77cd00:   deaddeaf0000000c 00000007b3acaed0
0x000070000b77cd10:   0000000000000000 00000007b3acabb8
0x000070000b77cd20:   0000000000000000 00000007b3ac78e0
0x000070000b77cd30:   00000007608ecf68 00000007b3ac78e0
0x000070000b77cd40:   00000007b3ac78e0 00000007608ecf68 

Instructions: (pc=0x0000000108ad5e8c)
0x0000000108ad5e6c:   00 4d 89 75 18 49 83 c5 30 4c 89 6d e0 44 8b aa
0x0000000108ad5e7c:   10 01 00 00 4e 8d ac ea a8 01 00 00 48 8d 14 da
0x0000000108ad5e8c:   49 8b 5d 00 48 3b c3 74 16 48 85 db 0f 84 e2 02
0x0000000108ad5e9c:   00 00 49 83 c5 10 49 8b 5d 00 48 3b c3 75 ea 45 

Register to memory mapping:

RAX=0x00000007c0014d88 is pointing into metadata
RBX=0x0000000000000006 is an unknown value
RCX=0x000000076109f058 is an oop
